<svg width="90" height="90" viewBox="0 0 90 90" fill="none" xmlns="http://www.w3.org/2000/svg">
<path d="M19.3066 87.2241L16.6602 83.4965C16.0984 82.7047 15.001 82.5186 14.2093 83.0806C13.4177 83.6425 13.2314 84.7398 13.7936 85.5315L16.4399 89.2592C16.7827 89.7421 17.3245 89.9996 17.8748 89.9996C18.2267 89.9996 18.582 89.8942 18.8908 89.675C19.6824 89.113 19.8687 88.0158 19.3066 87.2241Z" fill="#01A4D9"/>
<path d="M39.5867 87.8808L36.7067 74.1544C35.3063 67.4797 31.418 61.7081 25.7586 57.9026L19.6096 53.7679C17.1439 52.1103 13.8297 52.4668 11.7689 54.5683V33.3874C11.7689 30.6073 9.87344 28.2451 7.15938 27.6427C5.40772 27.2535 3.60105 27.6751 2.20166 28.7978C0.80244 29.9205 0 31.5934 0 33.3874V60.6425C0 64.2132 1.09265 67.6397 3.15966 70.5515L6.29436 74.9672C6.63713 75.4501 7.17889 75.7076 7.72926 75.7076C8.08117 75.7076 8.43643 75.6022 8.74527 75.383C9.53682 74.821 9.72314 73.7238 9.161 72.9321L6.0263 68.5163C4.3838 66.2025 3.51562 63.4798 3.51562 60.6424V33.3874C3.51562 32.6653 3.8387 31.9919 4.40191 31.5398C4.96493 31.0878 5.69214 30.9182 6.39772 31.0748C7.4902 31.3172 8.25326 32.2682 8.25326 33.3874V55.0112C8.25326 58.0723 9.37791 60.9887 11.421 63.2576C11.5086 63.3626 11.5986 63.4664 11.6936 63.5672C12.861 64.8041 14.2335 66.2617 15.5262 67.6356L17.3359 69.5616C17.3417 69.5678 17.348 69.5731 17.354 69.579C18.9021 71.2256 20.0438 72.4415 20.0677 72.4668C20.7319 73.1743 21.8446 73.2094 22.5523 72.5448C23.26 71.8802 23.295 70.7679 22.6302 70.0602C22.5982 70.0261 20.5405 67.8349 18.1907 65.3373L14.1602 61.0477C14.15 61.0368 14.1407 61.0254 14.1305 61.0145C13.1855 59.8842 13.1973 58.2454 14.1878 57.1271C15.0641 56.1382 16.5519 55.9483 17.6482 56.6854L23.7969 60.8201C28.692 64.1116 32.0549 69.1034 33.266 74.8764L36.1462 88.6029C36.32 89.4313 37.0507 90 37.8648 90C37.9843 90 38.1058 89.9877 38.2274 89.9622C39.1775 89.7629 39.7861 88.8309 39.5867 87.8808Z" fill="#01A4D9"/>
<path d="M13.0232 78.3732L13.012 78.3573C12.4477 77.567 11.3501 77.3835 10.56 77.9474C9.76985 78.5113 9.58633 79.6091 10.1501 80.3992L10.1613 80.415C10.5044 80.8958 11.045 81.1521 11.5938 81.1521C11.9471 81.1521 12.3037 81.0459 12.6133 80.825C13.4032 80.2611 13.5869 79.1633 13.0232 78.3732Z" fill="#01A4D9"/>
<path d="M87.7979 28.7979C86.3987 27.6752 84.5911 27.2544 82.8403 27.6429C80.1263 28.2451 78.2307 30.6074 78.2307 33.3876V54.5684C76.17 52.467 72.8555 52.1105 70.39 53.7681L64.241 57.9026C58.5814 61.7079 54.6932 67.4797 53.2928 74.1544L50.4128 87.881C50.2135 88.8311 50.822 89.7629 51.7721 89.9622C51.8938 89.9877 52.0154 90 52.1348 90C52.949 90 53.6795 89.4312 53.8534 88.6027L56.7334 74.8762C57.9447 69.1034 61.3074 64.1114 66.2025 60.8201L72.3515 56.6855C73.4475 55.9483 74.9353 56.1382 75.8119 57.1271C76.8012 58.244 76.8144 59.8802 75.8729 61.0104C75.8617 61.0228 75.8509 61.0354 75.8397 61.0477C75.8397 61.0477 67.4013 70.0264 67.3695 70.0602C66.7049 70.7678 66.7399 71.8802 67.4474 72.5448C68.1551 73.2094 69.2674 73.1745 69.9321 72.4668C69.956 72.4415 77.1387 64.8043 78.3061 63.5673C78.4012 63.4666 78.4912 63.3627 78.5787 63.2578C80.6216 60.9888 81.7465 58.0724 81.7465 55.0114V33.3874C81.7465 32.2682 82.5095 31.3172 83.6022 31.0748C84.3076 30.9184 85.0346 31.088 85.598 31.5398C86.1612 31.9917 86.4843 32.6651 86.4843 33.3874V60.6425C86.4843 63.48 85.6161 66.2026 83.9736 68.5164L70.6932 87.2242C70.1312 88.0158 70.3174 89.1132 71.1089 89.6752C71.4179 89.8944 71.773 89.9998 72.1249 89.9998C72.6751 89.9998 73.217 89.7421 73.5598 89.2594L86.8402 70.5516C88.9072 67.6398 89.9999 64.2133 89.9999 60.6427V33.3874C89.9994 31.5934 89.1971 29.9207 87.7979 28.7979Z" fill="#01A4D9"/>
<path d="M67.2638 33.6901L64.1365 32.943V32.3823C66.169 30.9585 67.5018 28.6007 67.5018 25.9362V21.8706C67.5018 17.5325 63.9727 14.0034 59.6346 14.0034C57.6878 14.0034 55.9054 14.7156 54.5302 15.8913C52.9992 12.1419 49.3152 9.49215 45.0219 9.49215C40.7234 9.49215 37.0355 12.1487 35.5079 15.9053C34.1307 14.7213 32.3418 14.003 30.3871 14.003C26.049 14.003 22.5198 17.5322 22.5198 21.8703V22.1404V25.9359C22.5198 28.6004 23.8526 30.9581 25.8852 32.3819V32.9427L22.7578 33.6897C19.0239 34.5818 16.416 37.886 16.416 41.725V45.0079C16.416 45.9787 17.2032 46.7657 18.1738 46.7657H26.2513C26.2388 46.9789 26.2302 47.1932 26.2302 47.4092V53.73C26.2302 54.7008 27.0174 55.4878 27.988 55.4878H38.5542C39.5249 55.4878 40.312 54.7008 40.312 53.73C40.312 52.7591 39.5249 51.9722 38.5542 51.9722H36.738V48.3396C36.738 47.3688 35.9509 46.5818 34.9802 46.5818C34.0096 46.5818 33.2224 47.3688 33.2224 48.3396V51.9725H29.746V47.4096C29.746 44.0193 32.0487 41.0998 35.3453 40.3098L40.1691 39.1539L43.3973 46.4983C43.6779 47.1366 44.3093 47.5488 45.0062 47.5488H45.0064C45.7036 47.5488 46.335 47.1368 46.6155 46.4985L49.8404 39.165L54.6489 40.3137C57.9486 41.1021 60.2533 44.022 60.2533 47.4147V51.9725H56.7769V48.3396C56.7769 47.3688 55.9897 46.5818 55.0191 46.5818C54.0484 46.5818 53.2613 47.3688 53.2613 48.3396V51.9725H51.2691C50.2985 51.9725 49.5113 52.7595 49.5113 53.7303C49.5113 54.7011 50.2985 55.4881 51.2691 55.4881H62.0113C62.982 55.4881 63.7691 54.7011 63.7691 53.7303V47.4147C63.7691 47.1969 63.7603 46.981 63.7477 46.7661H71.848C72.8187 46.7661 73.6058 45.9791 73.6058 45.0083V41.7254C73.6058 37.8863 70.9979 34.582 67.2638 33.6901ZM59.6346 17.5186C61.9376 17.5186 63.8283 19.3171 63.9767 21.5832H61.5328C59.4783 21.5832 57.4565 21.0886 55.6391 20.1467C56.3076 18.602 57.847 17.5186 59.6346 17.5186ZM55.2829 25.6793C55.285 25.5936 55.2894 25.5084 55.2894 25.4223V23.8568C57.2619 24.6731 59.383 25.0988 61.5328 25.0988H63.9862V25.9361C63.9862 28.3355 62.0341 30.2877 59.6346 30.2877C57.235 30.2877 55.2829 28.3355 55.2829 25.9359V25.6793ZM38.2702 19.7595C38.2702 16.0366 41.2989 13.0078 45.0219 13.0078C48.3798 13.0078 51.1728 15.4719 51.6886 18.6865L48.7293 16.9479C47.9891 16.513 47.043 16.6763 46.4916 17.3346C45.0455 19.0604 42.9247 20.0502 40.6729 20.0502H38.2702V19.7595ZM30.3873 17.5186C32.1748 17.5186 33.7141 18.6022 34.3828 20.1466C32.5652 21.0884 30.5435 21.583 28.489 21.583H26.0451C26.1935 19.3171 28.0844 17.5186 30.3873 17.5186ZM26.0356 25.0986H28.489C30.6411 25.0986 32.7645 24.672 34.7389 23.8539V25.9357C34.7389 28.3351 32.7868 30.2873 30.3873 30.2873C27.9877 30.2873 26.0356 28.3355 26.0356 25.9359V25.0986ZM34.5262 36.8909C31.0679 37.7195 28.35 40.1307 27.0564 43.2503H19.9316V41.7252C19.9316 39.5199 21.4296 37.6216 23.5747 37.1092L28.0515 36.0398C28.8427 35.8508 29.4009 35.1436 29.4009 34.3301V33.7391C29.7244 33.7797 30.0531 33.8031 30.3873 33.8031C30.719 33.8031 31.0454 33.7801 31.3664 33.74V34.2415C31.3651 34.2677 31.3646 34.2939 31.3644 34.3201C31.3641 34.8968 31.6476 35.4618 32.1683 35.7986C32.3644 35.9257 32.5764 36.0083 32.7928 36.0496L35.4149 36.6778L34.5262 36.8909ZM39.4294 34.1621C38.9778 33.9629 38.5071 33.8037 38.0219 33.6875L34.8818 32.9349V32.3872C35.4485 31.9912 35.9609 31.5231 36.4053 30.9954C37.1903 32.2048 38.2218 33.2389 39.4294 34.0265V34.1621ZM47.0639 36.7448L45.007 41.4232L42.9452 36.7329V35.4785C43.6162 35.6168 44.3107 35.6898 45.0219 35.6898C45.721 35.6898 46.4037 35.6189 47.0639 35.4852V36.7448ZM45.0219 32.174C41.2989 32.1742 38.2702 29.1453 38.2702 25.4223V23.5657H40.6729C43.4604 23.5657 46.1109 22.5291 48.1422 20.6802L51.7671 22.81V25.6794C51.6314 29.2835 48.6588 32.174 45.0219 32.174ZM50.5796 34.1677V34.0487C51.797 33.2615 52.8376 32.2248 53.6288 31.0101C54.0702 31.5319 54.5782 31.9949 55.1395 32.3872V32.9349L51.9992 33.6875C51.5098 33.8049 51.035 33.9661 50.5796 34.1677ZM70.09 43.2503H62.941C61.6462 40.1307 58.9263 37.7209 55.4659 36.8942L54.5833 36.6835L57.2195 36.0517C57.4389 36.0109 57.6544 35.9273 57.8532 35.7986C58.373 35.4623 58.6556 34.8974 58.6556 34.3206C58.6556 34.3069 58.6555 34.293 58.6551 34.2793V33.74C58.9763 33.7801 59.3025 33.8031 59.6342 33.8031C59.9684 33.8031 60.2971 33.7797 60.6205 33.7391V34.3301C60.6205 35.1436 61.1788 35.8508 61.97 36.0398L66.4468 37.1092C68.5918 37.6218 70.09 39.5199 70.09 41.7252V43.2503Z" fill="#93C485"/>
<path d="M46.2423 52.4863C45.9138 52.1594 45.4621 51.973 44.9998 51.973C44.5355 51.973 44.0839 52.1594 43.757 52.4863C43.4283 52.815 43.2419 53.2668 43.2419 53.7309C43.2419 54.1932 43.4283 54.6449 43.757 54.9736C44.0839 55.3006 44.5357 55.4887 44.9998 55.4887C45.4621 55.4887 45.9138 55.3006 46.2423 54.9736C46.5693 54.6449 46.7576 54.1932 46.7576 53.7309C46.7576 53.2668 46.5695 52.815 46.2423 52.4863Z" fill="#93C485"/>
<path d="M44.9985 0C44.0279 0 43.2407 0.78697 43.2407 1.75781V4.38801C43.2407 5.35885 44.0279 6.14582 44.9985 6.14582C45.9692 6.14582 46.7563 5.35885 46.7563 4.38801V1.75781C46.7563 0.78697 45.9694 0 44.9985 0Z" fill="#93C485"/>
<path d="M38.5234 5.73379L36.6795 3.89161C35.9927 3.20536 34.8798 3.20589 34.1936 3.89266C33.5073 4.57944 33.508 5.69248 34.1948 6.37855L36.0389 8.22073C36.3821 8.56368 36.8317 8.73506 37.2812 8.73506C37.7314 8.73506 38.1814 8.56315 38.5247 8.21968C39.2106 7.5329 39.2102 6.41986 38.5234 5.73379Z" fill="#93C485"/>
<path d="M55.7613 3.9366C55.0745 3.25053 53.9613 3.25088 53.2754 3.93784L51.4457 5.76929C50.7596 6.45607 50.7602 7.56911 51.447 8.25518C51.7903 8.59813 52.2397 8.76952 52.6894 8.76952C53.1395 8.76952 53.5897 8.5976 53.9328 8.25395L55.7625 6.42249C56.4486 5.73572 56.4481 4.62268 55.7613 3.9366Z" fill="#93C485"/>
</svg>
