<svg width="78" height="90" viewBox="0 0 78 90" fill="none" xmlns="http://www.w3.org/2000/svg">
<path d="M75.6215 15.541C63.1956 12.1481 50.6967 6.86499 39.4759 0.263012C38.8799 -0.0876707 38.1403 -0.0876707 37.5444 0.263012C25.9999 7.05466 14.1764 12.0519 1.39773 15.541C0.572214 15.7662 0 16.514 0 17.367V36.711C0 56.631 9.22157 69.8167 16.9577 77.3702C25.2862 85.5027 34.9878 90 38.5101 90C42.0322 90 51.7337 85.5027 60.0622 77.3702C67.7982 69.8168 77.0192 56.6312 77.0192 36.711V17.3668C77.0192 16.514 76.447 15.7662 75.6215 15.541ZM73.2198 36.7108C73.2198 55.316 64.6187 67.6198 57.4029 74.6654C49.2129 82.6626 40.4563 86.2133 38.5101 86.2133C36.564 86.2133 27.8069 82.6626 19.6167 74.6654C12.401 67.6196 3.79965 55.316 3.79965 36.7108V18.804C16.0197 15.3464 27.4001 10.5211 38.5105 4.08695C49.3434 10.3504 61.2916 15.4157 73.2198 18.8033V36.7108Z" fill="#01A4D9"/>
<path d="M21.6709 18.5922C21.2864 17.6193 20.1834 17.1413 19.2069 17.5247C15.8132 18.8573 12.3298 20.0839 8.85363 21.1706C8.06145 21.4184 7.5224 22.1497 7.5224 22.9769V30.2878C7.5224 31.3333 8.37314 32.181 9.42214 32.181C10.4711 32.181 11.3219 31.3333 11.3219 30.2878V24.3605C14.4403 23.355 17.5554 22.2428 20.5997 21.0473C21.576 20.6643 22.0556 19.5652 21.6709 18.5922Z" fill="#01A4D9"/>
<path d="M25.2797 18.9513C25.5346 18.9513 25.7934 18.9002 26.0416 18.7923L26.0765 18.7771C27.0377 18.3574 27.4705 17.2424 27.0493 16.2849C26.6277 15.3271 25.5025 14.8938 24.5424 15.3132L24.5117 15.3264C23.5501 15.7449 23.1158 16.859 23.5358 17.817C23.8475 18.5282 24.5468 18.9513 25.2797 18.9513Z" fill="#01A4D9"/>
<path d="M61.1445 61.0457C60.2666 60.4739 59.0894 60.7198 58.5149 61.595C56.9494 63.9829 55.1128 66.2694 53.0554 68.3906C51.3634 70.1347 49.53 71.7603 47.6061 73.2219C46.772 73.8558 46.6114 75.0437 47.2473 75.8753C47.6215 76.3638 48.1871 76.6208 48.7594 76.6208C49.1612 76.6208 49.566 76.4944 49.91 76.2328C51.9852 74.6559 53.9626 72.9029 55.7868 71.0224C58.0113 68.7295 59.9992 66.2545 61.6957 63.6661C62.2699 62.7907 62.0228 61.6175 61.1445 61.0457Z" fill="#01A4D9"/>
<path d="M43.1942 76.191L43.0852 76.255C42.1773 76.779 41.8671 77.9371 42.3927 78.8418C42.745 79.4482 43.3826 79.7868 44.0386 79.7868C44.3614 79.7868 44.6891 79.7047 44.9885 79.5316L45.1142 79.4579C46.0197 78.9295 46.3238 77.7699 45.7935 76.8676C45.2629 75.9657 44.0991 75.6631 43.1942 76.191Z" fill="#01A4D9"/>
<path d="M25.5605 41.1361C24.3941 39.9735 22.8427 39.3336 21.1927 39.3336C19.5428 39.3336 17.9912 39.9737 16.8242 41.1361C14.4159 43.5366 14.4159 47.4424 16.8242 49.8427L28.042 61.0213C29.2087 62.1836 30.76 62.8236 32.4102 62.8236C34.0603 62.8236 35.6117 62.1836 36.7785 61.021L60.1964 37.6839C62.6045 35.2829 62.6045 31.3776 60.1961 28.978C59.0294 27.8154 57.478 27.1756 55.8277 27.1756C54.1776 27.1756 52.6262 27.8156 51.4594 28.978L32.41 47.9615L25.5605 41.1361ZM54.1462 31.6555C54.5951 31.2082 55.1925 30.9619 55.8279 30.9619C56.4636 30.9619 57.0605 31.2082 57.5098 31.6555C58.4367 32.5793 58.4367 34.0829 57.5094 35.007L34.0919 58.3436C33.643 58.791 33.0455 59.0373 32.4102 59.0373C31.7748 59.0373 31.1774 58.791 30.7283 58.3436L19.5108 47.1654C18.5835 46.2413 18.5835 44.7377 19.5105 43.8139C19.9596 43.3666 20.557 43.12 21.1925 43.12C21.8281 43.12 22.4252 43.3662 22.8741 43.8136L31.0666 51.9779C31.4231 52.3328 31.906 52.5323 32.41 52.5323C32.9139 52.5323 33.3969 52.333 33.753 51.9779L54.1462 31.6555Z" fill="#93C485"/>
</svg>
