<svg width="30" height="30" viewBox="0 0 30 30" fill="none" xmlns="http://www.w3.org/2000/svg">
<path d="M5.12508 19.6548H0.520371C0.232969 19.6548 0 19.8877 0 20.1752V22.7079V25.2062V28.9442C0 29.2316 0.233027 29.4645 0.520371 29.4645H5.12502C5.41242 29.4645 5.64539 29.2316 5.64539 28.9442V25.2062V22.7079V20.1752C5.64545 19.8878 5.41248 19.6548 5.12508 19.6548ZM4.60465 28.4238H1.0408V25.7266H4.60471V28.4238H4.60465ZM4.60465 24.6858H1.0408V23.2283H4.60471V24.6858H4.60465ZM4.60465 22.1876H1.0408V20.6957H4.60471V22.1876H4.60465Z" fill="#333333"/>
<path d="M13.2432 11.7535H8.6386C8.35119 11.7535 8.11822 11.9865 8.11822 12.2739V14.8066V17.3048V20.9647C8.11822 21.2522 8.35125 21.4851 8.6386 21.4851C8.926 21.4851 9.15897 21.2522 9.15897 20.9647V17.8252H12.7229V28.4237H9.15897V23.0463C9.15897 22.7588 8.92594 22.5259 8.6386 22.5259C8.35119 22.5259 8.11822 22.7588 8.11822 23.0463V28.9441C8.11822 29.2315 8.35125 29.4644 8.6386 29.4644H13.2432C13.5306 29.4644 13.7636 29.2315 13.7636 28.9441V17.3048V14.8066V12.2739C13.7637 11.9865 13.5306 11.7535 13.2432 11.7535ZM12.7229 16.7845H9.15897V15.3271H12.7229V16.7845ZM12.7229 14.2863H9.15897V12.7943H12.7229V14.2863Z" fill="#333333"/>
<path d="M21.3614 19.6548H16.7568C16.4694 19.6548 16.2364 19.8877 16.2364 20.1752V22.7079V25.2062V28.9442C16.2364 29.2316 16.4694 29.4645 16.7568 29.4645H21.3614C21.6488 29.4645 21.8818 29.2316 21.8818 28.9442V25.2062V22.7079V20.1752C21.8818 19.8878 21.6488 19.6548 21.3614 19.6548ZM20.841 28.4238H17.2771V25.7266H20.841V28.4238ZM20.841 24.6858H17.2771V23.2283H20.841V24.6858ZM20.841 22.1876H17.2771V20.6957H20.841V22.1876Z" fill="#333333"/>
<path d="M29.4796 8.27097H24.875C24.5876 8.27097 24.3546 8.50388 24.3546 8.79134V11.3242V13.8224V23.5189C24.3546 23.8063 24.5876 24.0392 24.875 24.0392C25.1623 24.0392 25.3954 23.8063 25.3954 23.5189V14.3427H28.9593V28.4237H25.3954V25.6004C25.3954 25.313 25.1623 25.08 24.875 25.08C24.5876 25.08 24.3546 25.313 24.3546 25.6004V28.9441C24.3546 29.2315 24.5876 29.4644 24.875 29.4644H29.4796C29.767 29.4644 30 29.2315 30 28.9441V13.8224V11.3242V8.79134C30 8.50399 29.767 8.27097 29.4796 8.27097ZM28.9592 13.3019H25.3953V11.8445H28.9592V13.3019ZM28.9592 10.8038H25.3953V9.31177H28.9592V10.8038Z" fill="#333333"/>
<path d="M27.1773 -1.36346e-08C25.9474 -1.36346e-08 24.9469 1.00055 24.9469 2.23043C24.9469 2.63127 25.0537 3.00732 25.2396 3.33275L20.4154 7.74709C20.0393 7.45805 19.569 7.28561 19.0592 7.28561C18.3773 7.28561 17.7662 7.59352 17.3568 8.07721L13.0957 5.54643C13.1448 5.36285 13.1714 5.17008 13.1714 4.97115C13.1714 3.74127 12.1708 2.74078 10.9409 2.74078C9.71105 2.74078 8.71056 3.74133 8.71056 4.97115C8.71056 5.33162 8.79698 5.67211 8.9495 5.97369L3.68269 10.7452C3.32075 10.4917 2.88083 10.3424 2.40646 10.3424C1.17657 10.3424 0.176086 11.343 0.176086 12.5729C0.176086 13.8028 1.17657 14.8032 2.40646 14.8032C3.63634 14.8032 4.63689 13.8027 4.63689 12.5728C4.63689 12.1937 4.54156 11.8365 4.37392 11.5235L9.62245 6.76857C9.99206 7.04045 10.448 7.20146 10.941 7.20146C11.5984 7.20146 12.19 6.91547 12.5985 6.46154L16.8876 9.00891C16.8496 9.17191 16.8288 9.34143 16.8288 9.51586C16.8288 10.7457 17.8293 11.7463 19.0592 11.7463C20.2891 11.7463 21.2896 10.7457 21.2896 9.51586C21.2896 9.17268 21.2116 8.84742 21.0724 8.55668L25.9514 4.09225C26.3035 4.3248 26.7248 4.46074 27.1774 4.46074C28.4073 4.46074 29.4078 3.4602 29.4078 2.23037C29.4078 1.00055 28.4072 -1.36346e-08 27.1773 -1.36346e-08ZM2.4064 13.7626C1.75044 13.7626 1.21683 13.2289 1.21683 12.5729C1.21683 11.917 1.7505 11.3833 2.40646 11.3833C2.73986 11.3833 3.04114 11.5216 3.25736 11.7433C3.26989 11.7613 3.28331 11.779 3.29843 11.7957C3.31062 11.8092 3.32345 11.8218 3.33675 11.8337C3.49864 12.0369 3.59603 12.2936 3.59603 12.573C3.59603 13.2288 3.06236 13.7626 2.4064 13.7626ZM10.9409 6.16078C10.285 6.16078 9.7513 5.62711 9.7513 4.97115C9.7513 4.3152 10.285 3.78158 10.9409 3.78158C11.5969 3.78158 12.1306 4.31525 12.1306 4.97115C12.1306 5.62705 11.5969 6.16078 10.9409 6.16078ZM19.0592 10.7056C18.4032 10.7056 17.8695 10.1719 17.8695 9.51598C17.8695 8.86014 18.4032 8.32641 19.0592 8.32641C19.7151 8.32641 20.2488 8.86008 20.2488 9.51598C20.2488 10.1719 19.7151 10.7056 19.0592 10.7056ZM27.1773 3.42012C26.5214 3.42012 25.9877 2.88645 25.9877 2.23049C25.9877 1.57453 26.5214 1.04086 27.1773 1.04086C27.8333 1.04086 28.3669 1.57453 28.3669 2.23049C28.3669 2.8865 27.8333 3.42012 27.1773 3.42012Z" fill="#333333"/>
</svg>
