<svg width="63" height="33" viewBox="0 0 63 33" fill="none" xmlns="http://www.w3.org/2000/svg">
<path d="M18.7 26.3V30H2.7V26.3H8.56V9.44C8.56 8.77333 8.58 8.08667 8.62 7.38L4.46 10.86C4.22 11.0467 3.98 11.1667 3.74 11.22C3.51333 11.26 3.29333 11.26 3.08 11.22C2.88 11.18 2.7 11.1133 2.54 11.02C2.38 10.9133 2.26 10.8 2.18 10.68L0.62 8.54L9.44 1.04H13.5V26.3H18.7ZM47.4031 15.54C47.4031 18.06 47.1298 20.2533 46.5831 22.12C46.0498 23.9733 45.3031 25.5067 44.3431 26.72C43.3965 27.9333 42.2698 28.84 40.9631 29.44C39.6698 30.0267 38.2698 30.32 36.7631 30.32C35.2565 30.32 33.8565 30.0267 32.5631 29.44C31.2831 28.84 30.1698 27.9333 29.2231 26.72C28.2765 25.5067 27.5365 23.9733 27.0031 22.12C26.4698 20.2533 26.2031 18.06 26.2031 15.54C26.2031 13.0067 26.4698 10.8133 27.0031 8.96C27.5365 7.10667 28.2765 5.57333 29.2231 4.36C30.1698 3.14667 31.2831 2.24667 32.5631 1.66C33.8565 1.06 35.2565 0.76 36.7631 0.76C38.2698 0.76 39.6698 1.06 40.9631 1.66C42.2698 2.24667 43.3965 3.14667 44.3431 4.36C45.3031 5.57333 46.0498 7.10667 46.5831 8.96C47.1298 10.8133 47.4031 13.0067 47.4031 15.54ZM42.3031 15.54C42.3031 13.4467 42.1498 11.7133 41.8431 10.34C41.5365 8.96667 41.1231 7.87333 40.6031 7.06C40.0965 6.24667 39.5098 5.68 38.8431 5.36C38.1765 5.02667 37.4831 4.86 36.7631 4.86C36.0565 4.86 35.3698 5.02667 34.7031 5.36C34.0498 5.68 33.4698 6.24667 32.9631 7.06C32.4565 7.87333 32.0498 8.96667 31.7431 10.34C31.4498 11.7133 31.3031 13.4467 31.3031 15.54C31.3031 17.6333 31.4498 19.3667 31.7431 20.74C32.0498 22.1133 32.4565 23.2067 32.9631 24.02C33.4698 24.8333 34.0498 25.4067 34.7031 25.74C35.3698 26.06 36.0565 26.22 36.7631 26.22C37.4831 26.22 38.1765 26.06 38.8431 25.74C39.5098 25.4067 40.0965 24.8333 40.6031 24.02C41.1231 23.2067 41.5365 22.1133 41.8431 20.74C42.1498 19.3667 42.3031 17.6333 42.3031 15.54ZM58.4007 28.1665C59.0721 28.0778 59.5787 27.853 59.9208 27.492C60.2691 27.1247 60.4433 26.6465 60.4433 26.0575C60.4433 25.8168 60.3989 25.6078 60.3103 25.4305C60.2279 25.2468 60.1076 25.0853 59.9493 24.946C59.7972 24.8067 59.6167 24.6863 59.4077 24.585C59.1987 24.4837 58.9708 24.3887 58.7238 24.3L58.4007 28.1665ZM57.7927 18.125C57.4381 18.1693 57.1372 18.2453 56.8903 18.353C56.6432 18.4543 56.4406 18.581 56.2822 18.733C56.1239 18.885 56.0067 19.056 55.9307 19.246C55.8611 19.436 55.8263 19.6355 55.8263 19.8445C55.8263 20.0852 55.8674 20.2973 55.9497 20.481C56.0384 20.6583 56.1556 20.8198 56.3012 20.9655C56.4532 21.1048 56.6306 21.2315 56.8332 21.3455C57.0359 21.4532 57.2576 21.5545 57.4983 21.6495L57.7927 18.125ZM58.9043 22.1055C59.3602 22.2448 59.8131 22.4 60.2628 22.571C60.7124 22.7357 61.1146 22.951 61.4692 23.217C61.8303 23.483 62.1216 23.8155 62.3433 24.2145C62.5649 24.6072 62.6757 25.1012 62.6757 25.6965C62.6757 26.2855 62.5776 26.8397 62.3812 27.359C62.1849 27.872 61.8968 28.328 61.5167 28.727C61.1367 29.1197 60.6712 29.4427 60.1202 29.696C59.5693 29.943 58.9391 30.0887 58.2297 30.133L58.1158 31.5295C58.1094 31.6752 58.0461 31.8082 57.9257 31.9285C57.8118 32.0552 57.6661 32.1185 57.4888 32.1185H56.6243L56.7953 30.0855C56.0543 29.9842 55.3576 29.7815 54.7052 29.4775C54.0529 29.1735 53.4987 28.7967 53.0428 28.347L53.7648 27.2735C53.8281 27.1785 53.9104 27.1025 54.0117 27.0455C54.1194 26.9822 54.2334 26.9505 54.3537 26.9505C54.4931 26.9505 54.6419 27.0012 54.8003 27.1025C54.9586 27.1975 55.1391 27.3115 55.3417 27.4445C55.5444 27.5712 55.7756 27.701 56.0352 27.834C56.2949 27.967 56.6021 28.0652 56.9568 28.1285L57.3082 23.882C56.8586 23.7553 56.4121 23.6065 55.9688 23.4355C55.5317 23.2645 55.1359 23.0397 54.7812 22.761C54.4329 22.476 54.1511 22.1182 53.9357 21.6875C53.7204 21.2568 53.6128 20.7185 53.6128 20.0725C53.6128 19.5912 53.7078 19.1225 53.8978 18.6665C54.0878 18.2042 54.3664 17.7925 54.7338 17.4315C55.1074 17.0705 55.5634 16.7728 56.1017 16.5385C56.6401 16.3042 57.2576 16.1712 57.9542 16.1395L58.0588 14.9425C58.0714 14.7905 58.1348 14.6543 58.2488 14.534C58.3628 14.4137 58.5116 14.3535 58.6953 14.3535H59.5598L59.4077 16.2155C60.0791 16.3232 60.6586 16.5163 61.1463 16.795C61.6339 17.0673 62.0551 17.3745 62.4097 17.7165L61.8397 18.581C61.7574 18.7077 61.6719 18.8027 61.5833 18.866C61.4946 18.9293 61.3869 18.961 61.2602 18.961C61.1652 18.961 61.0513 18.9325 60.9183 18.8755C60.7853 18.8122 60.6364 18.7393 60.4717 18.657C60.3071 18.5683 60.1203 18.4797 59.9113 18.391C59.7086 18.3023 59.4838 18.2295 59.2367 18.1725L58.9043 22.1055Z" fill="white"/>
</svg>
