<svg width="663" height="83" viewBox="0 0 663 83" fill="none" xmlns="http://www.w3.org/2000/svg">
<path d="M62.9 66.4H33.6L28.4 79.8H2L35.7 2.79999H61.2L94.9 79.8H68L62.9 66.4ZM55.7 47.7L48.2 28.3L40.7 47.7H55.7Z" stroke="black" stroke-opacity="0.2" stroke-width="2" stroke-miterlimit="10"/>
<path d="M177.4 47C179.9 50.2 181.1 54.1 181.1 58.7C181.1 65.4 178.3 70.7 172.7 74.4C167.1 78.1 159.1 80 148.5 80H105.2V3H146.3C156.6 3 164.3 4.8 169.6 8.5C174.8 12.2 177.5 17 177.5 23.1C177.5 26.7 176.6 29.9 174.8 32.8C173 35.7 170.3 38 166.8 39.7C171.4 41.3 174.9 43.7 177.4 47ZM130.7 21V32.4H142.8C148.4 32.4 151.3 30.5 151.3 26.7C151.3 22.9 148.5 21 142.8 21H130.7ZM154.9 55.7C154.9 51.7 152 49.7 146.3 49.7H130.7V61.8H146.3C152.1 61.7 154.9 59.7 154.9 55.7Z" stroke="black" stroke-opacity="0.2" stroke-width="2" stroke-miterlimit="10"/>
<path d="M214.4 76.4C207.8 73 202.6 68.2 198.9 62C195.2 55.9 193.3 49 193.3 41.3C193.3 33.6 195.2 26.7 198.9 20.6C202.6 14.5 207.8 9.7 214.4 6.2C221 2.8 228.4 1 236.7 1C245 1 252.4 2.7 259 6.2C265.6 9.6 270.8 14.4 274.5 20.6C278.2 26.7 280.1 33.6 280.1 41.3C280.1 49 278.2 55.9 274.5 62C270.8 68.1 265.6 72.9 259 76.4C252.4 79.8 245 81.6 236.7 81.6C228.5 81.6 221 79.9 214.4 76.4ZM245.5 58.2C248.1 56.6 250.2 54.4 251.7 51.5C253.2 48.6 254 45.2 254 41.3C254 37.4 253.2 34 251.7 31.1C250.2 28.2 248.1 26 245.5 24.4C242.9 22.8 240 22 236.8 22C233.6 22 230.7 22.8 228.1 24.4C225.5 26 223.4 28.2 221.9 31.1C220.4 34 219.6 37.4 219.6 41.3C219.6 45.2 220.4 48.6 221.9 51.5C223.4 54.4 225.5 56.6 228.1 58.2C230.7 59.8 233.6 60.6 236.8 60.6C240 60.6 242.9 59.8 245.5 58.2Z" stroke="black" stroke-opacity="0.2" stroke-width="2" stroke-miterlimit="10"/>
<path d="M305.1 72.1C298.5 65.7 295.2 56.8 295.2 45.3V2.90002H321.2V44.5C321.2 50.1 322.2 54.3 324.2 56.8C326.2 59.4 329.1 60.6 332.9 60.6C336.7 60.6 339.6 59.3 341.6 56.8C343.6 54.2 344.6 50.1 344.6 44.5V2.90002H370.1V45.2C370.1 56.7 366.8 65.7 360.2 72C353.6 78.4 344.4 81.6 332.6 81.6C320.9 81.6 311.7 78.4 305.1 72.1Z" stroke="black" stroke-opacity="0.2" stroke-width="2" stroke-miterlimit="10"/>
<path d="M403.9 23H381.4V2.90002H452.5V23H430V79.9H404V23H403.9Z" stroke="black" stroke-opacity="0.2" stroke-width="2" stroke-miterlimit="10"/>
<path d="M513.6 72.1C507 65.7 503.7 56.8 503.7 45.3V2.90002H529.7V44.5C529.7 50.1 530.7 54.3 532.7 56.8C534.7 59.4 537.6 60.6 541.4 60.6C545.2 60.6 548.1 59.3 550.1 56.8C552.1 54.2 553.1 50.1 553.1 44.5V2.90002H578.6V45.2C578.6 56.7 575.3 65.7 568.7 72C562.1 78.4 552.9 81.6 541.1 81.6C529.4 81.6 520.2 78.4 513.6 72.1Z" stroke="black" stroke-opacity="0.2" stroke-width="2" stroke-miterlimit="10"/>
<path d="M606.9 79.5C600.9 78.1 595.9 76.1 592 73.7L600.4 54.8C604.1 56.9 608.2 58.6 612.7 59.9C617.2 61.2 621.6 61.8 625.8 61.8C629.4 61.8 632 61.5 633.5 60.8C635 60.1 635.8 59.1 635.8 57.7C635.8 56.1 634.8 54.9 632.8 54.1C630.8 53.3 627.5 52.4 622.8 51.5C616.9 50.3 611.9 48.9 607.9 47.5C603.9 46.1 600.5 43.7 597.6 40.5C594.7 37.2 593.2 32.8 593.2 27.2C593.2 22.4 594.6 18 597.3 14C600 9.99999 604.1 6.89999 609.5 4.69999C614.9 2.39999 621.4 1.29999 629.1 1.29999C634.4 1.29999 639.6 1.89999 644.7 2.99999C649.8 4.09999 654.3 5.79999 658.2 7.99999L650.4 26.8C642.8 23 635.7 21.1 628.9 21.1C622.2 21.1 618.9 22.7 618.9 25.9C618.9 27.4 619.9 28.6 621.9 29.4C623.9 30.2 627.1 31 631.7 31.9C637.6 33 642.5 34.3 646.5 35.7C650.5 37.1 654 39.5 657 42.7C660 45.9 661.5 50.3 661.5 55.9C661.5 60.7 660.1 65.1 657.4 69C654.7 72.9 650.6 76 645.2 78.3C639.8 80.6 633.3 81.8 625.6 81.8C619.1 81.6 612.9 80.9 606.9 79.5Z" stroke="black" stroke-opacity="0.2" stroke-width="2" stroke-miterlimit="10"/>
</svg>
