<svg width="61" height="60" viewBox="0 0 61 60" fill="none" xmlns="http://www.w3.org/2000/svg">
<path d="M30.2826 30.2352C29.5829 27.7858 27.5961 25.9539 25.0984 25.4545L19.6703 24.3677V24.1132C21.4606 23.0739 22.7942 21.3397 23.3052 19.2803C25.0906 18.9368 26.4445 17.3681 26.4445 15.4839V10.6452C26.4445 4.77581 21.6687 1.10749e-08 15.7994 1.10749e-08C9.93 1.10749e-08 5.15419 4.77581 5.15419 10.6452V15.4839C5.15419 17.3681 6.50806 18.9368 8.29355 19.2813C8.80452 21.3406 10.1381 23.0748 11.9284 24.1142V24.3687L6.50129 25.4545C4.00258 25.9539 2.01581 27.7858 1.31613 30.2352L0 34.8387H31.5977L30.2826 30.2352ZM23.5413 17.1503V13.8174C24.1171 14.1532 24.509 14.7706 24.509 15.4839C24.509 16.1971 24.1171 16.8145 23.5413 17.1503ZM8.05742 17.1503C7.48161 16.8145 7.08968 16.1971 7.08968 15.4839C7.08968 14.7706 7.48161 14.1532 8.05742 13.8174V17.1503ZM7.08968 12.151V10.6452C7.08968 5.84323 10.9974 1.93548 15.7994 1.93548C20.6013 1.93548 24.509 5.84323 24.509 10.6452V12.151C23.9371 11.8181 23.2819 11.6129 22.5735 11.6129H20.8732C18.4839 11.6129 16.2377 10.6829 14.5481 8.99323L13.7139 8.15806L12.7335 9.62807C11.9052 10.8706 10.5184 11.6129 9.02516 11.6129C8.31677 11.6129 7.66161 11.8181 7.08968 12.151ZM9.9929 17.4194V13.4661C11.5819 13.2232 13.0258 12.3997 14.0323 11.13C15.9629 12.6968 18.3523 13.5484 20.8732 13.5484H21.6058V17.4194C21.6058 20.6216 19.0016 23.2258 15.7994 23.2258C12.5971 23.2258 9.9929 20.6216 9.9929 17.4194ZM17.7348 24.9068V25.1613C17.7348 26.2287 16.8668 27.0968 15.7994 27.0968C14.7319 27.0968 13.8639 26.2287 13.8639 25.1613V24.9068C14.4842 25.0674 15.1297 25.1613 15.7994 25.1613C16.469 25.1613 17.1145 25.0674 17.7348 24.9068ZM24.2971 32.9032L23.5123 29.7648L21.6348 30.2342L22.3016 32.9032H9.2971L9.96387 30.2352L8.08645 29.7658L7.30161 32.9032H2.56645L3.1771 30.7665C3.67742 29.0168 5.09613 27.7074 6.88065 27.3513L12.12 26.3032C12.6106 27.8777 14.0652 29.0323 15.7994 29.0323C17.5335 29.0323 18.9881 27.8777 19.4787 26.3032L24.719 27.3513C26.5035 27.7084 27.9223 29.0168 28.4226 30.7665L29.0323 32.9032H24.2971Z" fill="white"/>
<path d="M59.3148 55.3964C58.7477 53.4087 57.3242 51.8419 55.4768 51.0493V35.8064C55.4768 29.9371 50.701 25.1613 44.8316 25.1613C38.9623 25.1613 34.1865 29.9371 34.1865 35.8064V51.0493C32.3381 51.8419 30.9155 53.4087 30.3484 55.3964L29.0323 60H60.63L59.3148 55.3964ZM36.1219 35.8064C36.1219 31.0045 40.0297 27.0967 44.8316 27.0967C49.6335 27.0967 53.5413 31.0045 53.5413 35.8064V37.3122C52.9694 36.9793 52.3142 36.7742 51.6058 36.7742C50.1126 36.7742 48.7258 36.0319 47.8974 34.7893L46.9171 33.3193L46.0829 34.1545C44.3932 35.8442 42.1471 36.7742 39.7577 36.7742H38.0574C37.349 36.7742 36.6939 36.9793 36.1219 37.3122V35.8064ZM44.8316 48.3871C41.6294 48.3871 39.0252 45.7829 39.0252 42.5806V38.7096H39.7577C42.2777 38.7096 44.6681 37.858 46.5987 36.2913C47.6042 37.56 49.0481 38.3845 50.6381 38.6274V42.5806C50.6381 45.7829 48.0339 48.3871 44.8316 48.3871ZM46.7671 50.068V50.3225C46.7671 51.39 45.899 52.258 44.8316 52.258C43.7642 52.258 42.8961 51.39 42.8961 50.3225V50.068C43.5165 50.2287 44.1619 50.3225 44.8316 50.3225C45.5013 50.3225 46.1468 50.2287 46.7671 50.068ZM48.7026 49.2754C50.4929 48.2361 51.8265 46.5019 52.3374 44.4425C52.771 44.3593 53.1716 44.1938 53.5413 43.978V50.4977L48.7026 49.53V49.2754ZM52.5735 42.3116V38.9787C53.1494 39.3145 53.5413 39.9319 53.5413 40.6451C53.5413 41.3584 53.1494 41.9758 52.5735 42.3116ZM37.0897 38.9787V42.3116C36.5139 41.9758 36.1219 41.3584 36.1219 40.6451C36.1219 39.9319 36.5139 39.3145 37.0897 38.9787ZM36.1219 43.978C36.4916 44.1938 36.8923 44.3593 37.3258 44.4425C37.8368 46.5019 39.1703 48.2361 40.9606 49.2754V49.53L36.1219 50.4977V43.978ZM53.3294 58.0645L52.5445 54.9261L50.6671 55.3955L51.3339 58.0645H38.3294L38.9961 55.3964L37.1187 54.9271L36.3339 58.0645H31.5987L32.2094 55.9277C32.7097 54.178 34.1284 52.8687 35.9129 52.5125L41.1523 51.4645C41.6429 53.039 43.0974 54.1935 44.8316 54.1935C46.5658 54.1935 48.0203 53.039 48.511 51.4645L53.7513 52.5125C55.5358 52.8696 56.9545 54.178 57.4548 55.9277L58.0645 58.0645H53.3294Z" fill="white"/>
<path d="M9.64161 40.5833L13.4313 42.4781L14.2974 40.7468L7.62484 37.411L4.28903 44.0836L6.02032 44.9497L7.83774 41.3149C11.4435 48.4452 18.3813 53.5694 26.2916 54.842L26.5984 52.9307C19.351 51.7646 12.99 47.0913 9.64161 40.5833Z" fill="white"/>
<path d="M57.4123 1.10749e-08H34.1865C32.5858 1.10749e-08 31.2832 1.30258 31.2832 2.90323V14.5161C31.2832 16.1168 32.5858 17.4194 34.1865 17.4194H39.9929V24.0668L49.9636 17.4194H57.4123C59.0129 17.4194 60.3155 16.1168 60.3155 14.5161V2.90323C60.3155 1.30258 59.0129 1.10749e-08 57.4123 1.10749e-08ZM58.38 14.5161C58.38 15.0494 57.9455 15.4839 57.4123 15.4839H49.3771L41.9284 20.4494V15.4839H34.1865C33.6532 15.4839 33.2187 15.0494 33.2187 14.5161V2.90323C33.2187 2.37 33.6532 1.93548 34.1865 1.93548H57.4123C57.9455 1.93548 58.38 2.37 58.38 2.90323V14.5161Z" fill="white"/>
<path d="M38.0574 5.8064C36.4568 5.8064 35.1542 7.10898 35.1542 8.70962C35.1542 10.3103 36.4568 11.6128 38.0574 11.6128C39.6581 11.6128 40.9607 10.3103 40.9607 8.70962C40.9607 7.10898 39.6581 5.8064 38.0574 5.8064ZM38.0574 9.67736C37.5242 9.67736 37.0897 9.24285 37.0897 8.70962C37.0897 8.1764 37.5242 7.74188 38.0574 7.74188C38.5907 7.74188 39.0252 8.1764 39.0252 8.70962C39.0252 9.24285 38.5907 9.67736 38.0574 9.67736Z" fill="white"/>
<path d="M45.7993 5.8064C44.1987 5.8064 42.8961 7.10898 42.8961 8.70962C42.8961 10.3103 44.1987 11.6128 45.7993 11.6128C47.4 11.6128 48.7026 10.3103 48.7026 8.70962C48.7026 7.10898 47.4 5.8064 45.7993 5.8064ZM45.7993 9.67736C45.2661 9.67736 44.8316 9.24285 44.8316 8.70962C44.8316 8.1764 45.2661 7.74188 45.7993 7.74188C46.3326 7.74188 46.7671 8.1764 46.7671 8.70962C46.7671 9.24285 46.3326 9.67736 45.7993 9.67736Z" fill="white"/>
<path d="M53.5413 5.8064C51.9406 5.8064 50.6381 7.10898 50.6381 8.70962C50.6381 10.3103 51.9406 11.6128 53.5413 11.6128C55.1419 11.6128 56.4445 10.3103 56.4445 8.70962C56.4445 7.10898 55.1419 5.8064 53.5413 5.8064ZM53.5413 9.67736C53.0081 9.67736 52.5735 9.24285 52.5735 8.70962C52.5735 8.1764 53.0081 7.74188 53.5413 7.74188C54.0745 7.74188 54.509 8.1764 54.509 8.70962C54.509 9.24285 54.0745 9.67736 53.5413 9.67736Z" fill="white"/>
</svg>
