<svg width="48" height="60" viewBox="0 0 48 60" fill="none" xmlns="http://www.w3.org/2000/svg">
<path d="M9.89569 11.3016V8.0371C10.5879 8.26397 11.023 8.72065 11.023 9.14417C11.023 9.66296 11.4436 10.0837 11.9625 10.0837C12.4814 10.0837 12.902 9.66308 12.902 9.14417C12.902 7.64604 11.6401 6.42565 9.89569 6.09929V5.94999C9.89569 5.4312 9.4751 5.0105 8.9562 5.0105C8.43729 5.0105 8.0167 5.43108 8.0167 5.94999V6.09929C6.27237 6.42577 5.01038 7.64616 5.01038 9.14417C5.01038 11.2374 6.68217 12.1171 8.0167 12.6235V15.8881C7.32448 15.6612 6.88936 15.2045 6.88936 14.781C6.88936 14.2622 6.46877 13.8415 5.94987 13.8415C5.43096 13.8415 5.01038 14.2621 5.01038 14.781C5.01038 16.2791 6.27225 17.4995 8.0167 17.8259V17.9752C8.0167 18.494 8.43729 18.9147 8.9562 18.9147C9.4751 18.9147 9.89569 18.4941 9.89569 17.9752V17.8259C11.64 17.4994 12.902 16.279 12.902 14.781C12.902 12.6877 11.2302 11.808 9.89569 11.3016ZM8.01682 10.5737C7.08026 10.1147 6.88948 9.71382 6.88948 9.14417C6.88948 8.72065 7.32459 8.26397 8.01682 8.0371V10.5737ZM9.89569 15.888V13.3513C10.8322 13.8103 11.023 14.2112 11.023 14.7809C11.023 15.2044 10.5879 15.6611 9.89569 15.888Z" fill="white"/>
<path d="M23.9876 7.01453H15.9709C15.4521 7.01453 15.0314 7.43511 15.0314 7.95402C15.0314 8.47281 15.452 8.89351 15.9709 8.89351H23.9876C24.5064 8.89351 24.9271 8.47292 24.9271 7.95402C24.9271 7.43523 24.5064 7.01453 23.9876 7.01453Z" fill="white"/>
<path d="M16.973 15.0314H15.9709C15.4521 15.0314 15.0314 15.452 15.0314 15.9709C15.0314 16.4898 15.452 16.9104 15.9709 16.9104H16.973C17.4918 16.9104 17.9125 16.4898 17.9125 15.9709C17.9125 15.452 17.4918 15.0314 16.973 15.0314Z" fill="white"/>
<path d="M34.0085 22.0458H5.94999C5.4312 22.0458 5.0105 22.4664 5.0105 22.9853C5.0105 23.5042 5.43108 23.9248 5.94999 23.9248H34.0085C34.5273 23.9248 34.948 23.5042 34.948 22.9853C34.948 22.4664 34.5273 22.0458 34.0085 22.0458Z" fill="white"/>
<path d="M14.9687 28.0583H11.9624C11.4436 28.0583 11.0229 28.4789 11.0229 28.9978C11.0229 29.5167 11.4435 29.9373 11.9624 29.9373H14.9687C15.4875 29.9373 15.9082 29.5167 15.9082 28.9978C15.9082 28.4789 15.4876 28.0583 14.9687 28.0583Z" fill="white"/>
<path d="M7.95413 28.0583H5.94999C5.4312 28.0583 5.0105 28.4789 5.0105 28.9978C5.0105 29.5167 5.43108 29.9373 5.94999 29.9373H7.95413C8.47292 29.9373 8.89362 29.5167 8.89362 28.9978C8.89362 28.4789 8.47292 28.0583 7.95413 28.0583Z" fill="white"/>
<path d="M14.9687 32.0668H11.9624C11.4436 32.0668 11.0229 32.4874 11.0229 33.0063C11.0229 33.5251 11.4435 33.9458 11.9624 33.9458H14.9687C15.4875 33.9458 15.9082 33.5252 15.9082 33.0063C15.9082 32.4874 15.4876 32.0668 14.9687 32.0668Z" fill="white"/>
<path d="M7.95413 32.0668H5.94999C5.4312 32.0668 5.0105 32.4874 5.0105 33.0063C5.0105 33.5251 5.43108 33.9458 5.94999 33.9458H7.95413C8.47292 33.9458 8.89362 33.5252 8.89362 33.0063C8.89362 32.4874 8.47292 32.0668 7.95413 32.0668Z" fill="white"/>
<path d="M14.9687 36.0752H11.9624C11.4436 36.0752 11.0229 36.4958 11.0229 37.0147C11.0229 37.5336 11.4435 37.9542 11.9624 37.9542H14.9687C15.4875 37.9542 15.9082 37.5336 15.9082 37.0147C15.9082 36.4958 15.4876 36.0752 14.9687 36.0752Z" fill="white"/>
<path d="M7.95413 36.0752H5.94999C5.4312 36.0752 5.0105 36.4958 5.0105 37.0147C5.0105 37.5336 5.43108 37.9542 5.94999 37.9542H7.95413C8.47292 37.9542 8.89362 37.5336 8.89362 37.0147C8.89362 36.4958 8.47292 36.0752 7.95413 36.0752Z" fill="white"/>
<path d="M14.9687 40.0834H11.9624C11.4436 40.0834 11.0229 40.504 11.0229 41.0229C11.0229 41.5418 11.4435 41.9624 11.9624 41.9624H14.9687C15.4875 41.9624 15.9082 41.5418 15.9082 41.0229C15.9082 40.504 15.4876 40.0834 14.9687 40.0834Z" fill="white"/>
<path d="M7.95413 40.0834H5.94999C5.4312 40.0834 5.0105 40.504 5.0105 41.0229C5.0105 41.5418 5.43108 41.9624 5.94999 41.9624H7.95413C8.47292 41.9624 8.89362 41.5418 8.89362 41.0229C8.89362 40.504 8.47292 40.0834 7.95413 40.0834Z" fill="white"/>
<path d="M14.9687 44.0918H11.9624C11.4436 44.0918 11.0229 44.5124 11.0229 45.0313C11.0229 45.5502 11.4435 45.9708 11.9624 45.9708H14.9687C15.4875 45.9708 15.9082 45.5502 15.9082 45.0313C15.9082 44.5124 15.4876 44.0918 14.9687 44.0918Z" fill="white"/>
<path d="M7.95413 44.0918H5.94999C5.4312 44.0918 5.0105 44.5124 5.0105 45.0313C5.0105 45.5502 5.43108 45.9708 5.94999 45.9708H7.95413C8.47292 45.9708 8.89362 45.5502 8.89362 45.0313C8.89362 44.5124 8.47292 44.0918 7.95413 44.0918Z" fill="white"/>
<path d="M26.9939 15.0314H25.9919C25.4731 15.0314 25.0524 15.452 25.0524 15.9709C25.0524 16.4898 25.473 16.9104 25.9919 16.9104H26.9939C27.5127 16.9104 27.9334 16.4898 27.9334 15.9709C27.9334 15.452 27.5127 15.0314 26.9939 15.0314Z" fill="white"/>
<path d="M32.0042 15.0314H31.0022C30.4834 15.0314 30.0627 15.452 30.0627 15.9709C30.0627 16.4898 30.4833 16.9104 31.0022 16.9104H32.0042C32.523 16.9104 32.9437 16.4898 32.9437 15.9709C32.9437 15.452 32.5232 15.0314 32.0042 15.0314Z" fill="white"/>
<path d="M21.9834 15.0314H20.9814C20.4626 15.0314 20.0419 15.452 20.0419 15.9709C20.0419 16.4898 20.4625 16.9104 20.9814 16.9104H21.9834C22.5022 16.9104 22.9229 16.4898 22.9229 15.9709C22.9229 15.452 22.5022 15.0314 21.9834 15.0314Z" fill="white"/>
<path d="M25.9917 11.0229H15.9707C15.452 11.0229 15.0312 11.4435 15.0312 11.9624C15.0312 12.4813 15.4518 12.9019 15.9707 12.9019H25.9917C26.5105 12.9019 26.9312 12.4813 26.9312 11.9624C26.9312 11.4435 26.5106 11.0229 25.9917 11.0229Z" fill="white"/>
<path d="M44.0294 26.0542H39.9585V10.9604C39.9585 10.7113 39.8596 10.4723 39.6833 10.2962L29.6623 0.275156C29.4861 0.0989063 29.2472 0 28.998 0H2.94363C1.32047 0 -2.86102e-08 1.32047 -2.86102e-08 2.94363V51.0438C-2.86102e-08 52.667 1.32047 53.9875 2.94363 53.9875H18.0376V56.0543C18.0376 58.23 19.8077 60 21.9833 60H44.0293C46.205 60 47.975 58.2299 47.975 56.0543V29.9999C47.9752 27.8242 46.205 26.0542 44.0294 26.0542ZM29.9375 3.20742L36.7511 10.0209H32.0044C30.8647 10.0209 29.9375 9.09375 29.9375 7.9541V3.20742ZM18.0376 29.9999V52.1085H2.94363C2.35652 52.1085 1.87887 51.6308 1.87887 51.0437V2.94363C1.87887 2.35652 2.35652 1.87887 2.94363 1.87887H28.0586V7.9541C28.0586 10.1298 29.8287 11.8998 32.0043 11.8998H38.0795V26.0541H21.9834C19.8077 26.0542 18.0376 27.8242 18.0376 29.9999ZM46.0963 56.0543C46.0963 57.1939 45.1691 58.1211 44.0294 58.1211H21.9834C20.8438 58.1211 19.9166 57.1939 19.9166 56.0543V29.9999C19.9166 28.8602 20.8438 27.933 21.9834 27.933H44.0294C45.1691 27.933 46.0963 28.8602 46.0963 29.9999V56.0543Z" fill="white"/>
<path d="M42.0252 30.0624H23.9876C22.917 30.0624 22.046 30.9333 22.046 32.0039V36.0123C22.046 37.083 22.917 37.9539 23.9876 37.9539H42.0252C43.0958 37.9539 43.9668 37.083 43.9668 36.0123V32.0039C43.9668 30.9333 43.0958 30.0624 42.0252 30.0624ZM42.0879 36.0123C42.0879 36.0469 42.0599 36.0749 42.0253 36.0749H23.9876C23.953 36.0749 23.925 36.0469 23.925 36.0123V32.0039C23.925 31.9694 23.953 31.9414 23.9876 31.9414H42.0252C42.0598 31.9414 42.0878 31.9694 42.0878 32.0039V36.0123H42.0879Z" fill="white"/>
<path d="M25.9917 41.0855H23.9876C22.917 41.0855 22.046 41.9564 22.046 43.027V45.0312C22.046 46.1018 22.917 46.9727 23.9876 46.9727H25.9917C27.0623 46.9727 27.9333 46.1018 27.9333 45.0312V43.027C27.9333 41.9564 27.0623 41.0855 25.9917 41.0855ZM26.0544 45.0313C26.0544 45.0658 26.0264 45.0938 25.9918 45.0938H23.9876C23.953 45.0938 23.925 45.0658 23.925 45.0313V43.0271C23.925 42.9926 23.953 42.9646 23.9876 42.9646H25.9917C26.0263 42.9646 26.0543 42.9926 26.0543 43.0271V45.0313H26.0544Z" fill="white"/>
<path d="M42.0252 41.0855H40.021C38.9504 41.0855 38.0795 41.9564 38.0795 43.027V45.0312C38.0795 46.1018 38.9504 46.9727 40.021 46.9727H42.0252C43.0958 46.9727 43.9667 46.1018 43.9667 45.0312V43.027C43.9667 41.9564 43.0958 41.0855 42.0252 41.0855ZM42.0879 45.0313C42.0879 45.0658 42.0599 45.0938 42.0253 45.0938H40.0211C39.9866 45.0938 39.9586 45.0658 39.9586 45.0313V43.0271C39.9586 42.9926 39.9866 42.9646 40.0211 42.9646H42.0253C42.0599 42.9646 42.0879 42.9926 42.0879 43.0271V45.0313Z" fill="white"/>
<path d="M34.0086 41.0855H32.0044C30.9338 41.0855 30.0629 41.9564 30.0629 43.027V45.0312C30.0629 46.1018 30.9338 46.9727 32.0044 46.9727H34.0086C35.0792 46.9727 35.9501 46.1018 35.9501 45.0312V43.027C35.9501 41.9564 35.0792 41.0855 34.0086 41.0855ZM34.0711 45.0313C34.0711 45.0658 34.0431 45.0938 34.0086 45.0938H32.0044C31.9699 45.0938 31.9419 45.0658 31.9419 45.0313V43.0271C31.9419 42.9926 31.9699 42.9646 32.0044 42.9646H34.0086C34.0431 42.9646 34.0711 42.9926 34.0711 43.0271V45.0313Z" fill="white"/>
<path d="M25.9917 49.1023H23.9876C22.917 49.1023 22.046 49.9732 22.046 51.0439V53.048C22.046 54.1186 22.917 54.9896 23.9876 54.9896H25.9917C27.0623 54.9896 27.9333 54.1186 27.9333 53.048V51.0439C27.9333 49.9732 27.0623 49.1023 25.9917 49.1023ZM26.0544 53.048C26.0544 53.0826 26.0264 53.1106 25.9918 53.1106H23.9876C23.953 53.1106 23.925 53.0826 23.925 53.048V51.0439C23.925 51.0093 23.953 50.9813 23.9876 50.9813H25.9917C26.0263 50.9813 26.0543 51.0093 26.0543 51.0439V53.048H26.0544Z" fill="white"/>
<path d="M42.0252 49.1023H40.021C38.9504 49.1023 38.0795 49.9732 38.0795 51.0439V53.048C38.0795 54.1186 38.9504 54.9896 40.021 54.9896H42.0252C43.0958 54.9896 43.9667 54.1186 43.9667 53.048V51.0439C43.9667 49.9732 43.0958 49.1023 42.0252 49.1023ZM42.0879 53.048C42.0879 53.0826 42.0599 53.1106 42.0253 53.1106H40.0211C39.9866 53.1106 39.9586 53.0826 39.9586 53.048V51.0439C39.9586 51.0093 39.9866 50.9813 40.0211 50.9813H42.0253C42.0599 50.9813 42.0879 51.0093 42.0879 51.0439V53.048Z" fill="white"/>
<path d="M34.0086 49.1023H32.0044C30.9338 49.1023 30.0629 49.9732 30.0629 51.0439V53.048C30.0629 54.1186 30.9338 54.9896 32.0044 54.9896H34.0086C35.0792 54.9896 35.9501 54.1186 35.9501 53.048V51.0439C35.9501 49.9732 35.0792 49.1023 34.0086 49.1023ZM34.0711 53.048C34.0711 53.0826 34.0431 53.1106 34.0086 53.1106H32.0044C31.9699 53.1106 31.9419 53.0826 31.9419 53.048V51.0439C31.9419 51.0093 31.9699 50.9813 32.0044 50.9813H34.0086C34.0431 50.9813 34.0711 51.0093 34.0711 51.0439V53.048Z" fill="white"/>
</svg>
