<svg width="47" height="20" viewBox="0 0 47 20" fill="none" xmlns="http://www.w3.org/2000/svg">
<path d="M45.8839 10.8839C46.372 10.3957 46.372 9.60427 45.8839 9.11612L37.9289 1.16117C37.4408 0.67301 36.6493 0.67301 36.1612 1.16117C35.673 1.64932 35.673 2.44078 36.1612 2.92893L43.2322 10L36.1612 17.0711C35.673 17.5592 35.673 18.3507 36.1612 18.8388C36.6493 19.327 37.4408 19.327 37.9289 18.8388L45.8839 10.8839ZM0 11.25L45 11.25V8.75L0 8.75L0 11.25Z" fill="#BF5B20"/>
</svg>
