<svg width="60" height="60" viewBox="0 0 60 60" fill="none" xmlns="http://www.w3.org/2000/svg">
<path fill-rule="evenodd" clip-rule="evenodd" d="M59.6995 34.2116C59.4331 34.0694 58.9504 33.829 58.2252 33.5266C58.5954 30.58 58.5001 27.5936 57.9428 24.6767C55.0082 9.26855 40.0848 -0.879353 24.6767 2.05524C10.236 4.80555 0.416655 18.0844 1.65459 32.4248L0.124197 32.7073C-1.26398 17.5275 9.11027 3.44142 24.3862 0.538869C40.6337 -2.55598 56.3703 8.15079 59.4652 24.3942C60.0842 27.6314 60.1634 30.9486 59.6995 34.2116ZM4.38287 32.9897C5.14606 32.7894 5.91527 32.9617 6.29186 33.2521C6.33192 34.3819 6.36397 35.4876 6.38801 36.5633C6.17785 36.3804 5.93224 36.2428 5.66651 36.159C5.40079 36.0753 5.12065 36.0472 4.84359 36.0765C3.8901 36.2007 3.55958 37.0961 3.68978 37.9675C3.83601 38.941 4.24666 39.4058 5.63683 40.6016C7.13251 41.8789 8.08875 43.6755 8.31303 45.6295C8.65156 48.474 7.34551 49.5376 5.17411 48.8606C4.3586 48.5945 3.59885 48.181 2.9326 47.6407C2.92258 46.9576 2.91056 46.2645 2.89854 45.5594C3.4801 46.0371 4.14497 46.4031 4.85962 46.6391C5.88522 46.9416 6.31389 46.4188 6.18369 45.4532C6.03546 44.3675 5.44854 43.6865 4.36083 42.6909C2.59006 41.1385 1.75675 39.6481 1.54442 38.3521C1.17384 36.0806 2.0412 33.7008 4.38287 32.9897ZM35.3213 57.9428C40.3198 56.9965 44.9703 54.719 48.7824 51.3505C49.7499 51.1782 50.6794 51.0059 51.5568 50.8397C48.7865 53.7101 45.471 55.9985 41.8045 57.5705C38.1381 59.1424 34.1947 59.9664 30.2056 59.994C26.2165 60.0216 22.262 59.2523 18.5742 57.7313C14.8863 56.2102 11.5394 53.968 8.72968 51.1361C9.58902 51.2724 10.5005 51.4126 11.458 51.5548C14.698 54.3476 18.5268 56.3726 22.6589 57.4787C26.7909 58.5848 31.1194 58.7434 35.3213 57.9428ZM44.9845 49.159C45.6355 49.0208 46.1583 48.4139 46.4828 45.7537C46.9736 41.7314 47.5725 36.7776 48.0252 31.7898C48.8185 31.9234 49.6104 32.0723 50.401 32.2365C49.9242 36.6815 49.3433 41.0884 48.8445 44.8162C48.2436 49.2231 46.9195 51.1201 44.7401 51.5588C42.3784 51.9594 41.5972 50.4871 42.0719 45.6536C42.4725 41.469 42.9613 36.2769 43.2738 31.0587C44.0751 31.1642 44.8763 31.2784 45.6776 31.4012C45.2769 36.6555 44.7141 41.8756 44.2573 46.0442C43.9609 48.7244 44.3915 49.2372 44.9845 49.159ZM39.0973 48.496C39.8024 48.4239 40.2991 49.2632 40.189 50.4991C40.0888 51.685 39.5379 52.35 38.7667 52.4422C38.1117 52.5083 37.5648 51.9694 37.655 50.7716C37.7351 49.6158 38.4122 48.5541 39.0973 48.496ZM34.1455 30.2454C34.4079 32.521 34.6303 34.7845 34.8266 36.9559C34.9988 38.6586 35.1431 40.5736 35.2272 42.3644H35.2612C35.4876 40.6036 35.768 38.7367 36.0625 36.8598C36.387 34.7505 36.7015 32.5771 36.992 30.4137C37.8279 30.4738 38.6632 30.5439 39.4979 30.624C38.4022 35.9664 37.1662 41.467 36.0244 45.912C35.8602 48.6062 35.712 50.9058 35.6358 52.5784C34.9281 52.6291 34.2216 52.6699 33.5165 52.7006C33.5706 51.062 33.6848 48.8025 33.811 46.1483C33.172 41.7014 32.5129 35.9644 31.5735 30.1593C32.4268 30.1766 33.2841 30.2053 34.1455 30.2454ZM29.8007 32.5891C30.8664 34.7465 31.3752 38.5204 31.2409 43.2959C31.1067 47.9572 30.4397 50.411 29.4742 51.5508C28.723 52.4822 27.6714 52.8428 26.185 52.7727C25.5972 52.7408 25.0137 52.6536 24.4423 52.5123C24.3361 48.4039 24.4042 39.9226 23.9175 30.7021C24.6497 30.2833 25.4777 30.0604 26.3212 30.0551C27.8797 30.003 28.9834 30.8584 29.8007 32.5891ZM26.8961 34.4941C26.7308 34.4752 26.5646 34.5219 26.4334 34.6243C26.5857 41.0083 26.5216 46.6932 26.5236 50.4491C26.6426 50.4939 26.769 50.5156 26.8961 50.5132C27.9137 50.4651 28.8352 49.3614 28.9293 43.1016C28.9974 38.0176 28.3084 34.428 26.8941 34.4861L26.8961 34.4941ZM19.4645 30.5859C20.2537 30.5112 21.045 30.4444 21.8382 30.3856C22.2068 35.9724 22.365 41.5091 22.4692 45.8919C22.5834 51.056 21.5898 52.4001 19.5346 52.1738C17.2751 51.8192 16.2655 50.0444 15.963 45.3411C15.6906 41.2547 15.336 36.2228 14.8052 31.1368C15.5837 31.0273 16.3643 30.9271 17.1469 30.8363C17.6577 36.4011 17.9481 41.9077 18.1805 46.2204C18.3227 48.9828 18.8275 49.6458 19.3964 49.748C20.0114 49.794 20.428 49.3353 20.3198 46.4288C20.1476 42.0179 19.9192 36.3329 19.4645 30.5859ZM11.2777 50.4591C10.877 46.8995 10.3983 41.6453 9.72724 35.9944C9.04083 36.0478 8.35643 36.1046 7.67402 36.1647C7.51778 34.9628 7.35152 33.7349 7.17725 32.505C9.31393 32.0362 11.47 31.6356 13.6454 31.3031C13.8096 32.7894 13.9599 34.2517 14.0921 35.6939C13.3937 35.7353 12.6966 35.7801 12.0008 35.8282C12.6358 41.8376 13.0545 47.3883 13.403 50.9458C12.6966 50.7936 11.9881 50.6314 11.2777 50.4591ZM51.9414 25.8205C52.3066 27.7339 52.4191 29.6869 52.2759 31.6296L51.7471 31.5034C51.9681 28.3046 51.4818 25.0963 50.3228 22.1067C50.4671 22.4933 50.6053 22.8859 50.7235 23.2825C50.5582 23.3257 50.3848 23.3273 50.2187 23.2871C50.0527 23.2469 49.8992 23.1662 49.772 23.0521C49.6097 22.9239 49.5096 22.2208 49.2131 22.4512C49.0969 22.5233 49.1069 22.4933 49.0448 22.6335C49.0308 22.6916 49.0008 22.6575 49.0448 22.6936C49.1169 23.0401 49.3854 23.4067 49.772 23.4227C49.7864 23.5639 49.7864 23.7062 49.772 23.8474H49.8842C50.2307 24.1018 50.5652 23.7152 50.7896 23.5069C50.9405 24.0116 51.074 24.5231 51.1902 25.0413C51.1788 25.1074 51.1728 25.1744 51.1722 25.2416H51.0039C50.8276 25.5481 50.6574 25.488 50.6033 25.7884L49.9883 25.8485C49.9683 25.9747 49.9743 25.9647 49.9322 26.0308C49.7319 26.2311 48.3497 26.6878 48.0312 26.6999V26.8821C47.901 26.8942 47.873 26.8942 47.8069 26.9422C48.1474 26.9843 48.0833 27.1425 48.4219 27.1846C48.6222 27.0063 49.2051 26.9342 49.7079 26.9422C49.7079 28.0359 49.153 28.4025 48.5901 28.8873C48.4419 29.0155 48.3898 29.2779 48.2556 29.4341C47.9178 29.8112 47.6033 30.2085 47.3141 30.624C45.2469 30.2815 42.9072 29.979 40.2491 29.7546C40.3637 29.4593 40.3888 29.1367 40.3212 28.8272C40.2307 28.7887 40.153 28.7255 40.0968 28.6449L39.4258 28.7671C39.3276 28.5127 39.2735 28.2783 38.9791 28.2202C38.5644 28.0299 38.0035 28.5127 37.6931 28.6449C37.012 28.4446 36.8918 28.6669 36.1847 28.705C35.9143 28.4566 35.3614 28.2383 35.1831 27.9138C35.103 27.7715 35.1551 27.6173 35.0709 27.4891C34.9187 27.2547 34.7004 27.2407 34.6242 26.8881H34.456C34.371 26.7732 34.2959 26.6513 34.2316 26.5236C34.3819 26.2892 34.2316 26.3553 34.1755 26.0368C34.3676 25.8333 34.5363 25.6089 34.6783 25.3678C34.5503 25.0759 34.4568 24.77 34.3999 24.4563C34.5862 24.2701 34.5822 24.0197 34.7344 23.7873C34.8206 23.6551 35.0169 23.6531 35.135 23.5449C35.2532 23.4367 35.1771 23.2024 35.1911 23.1803L36.0845 22.5794C35.8722 21.9404 36.3229 21.9324 36.6995 21.6059C36.8046 21.4509 36.8976 21.2882 36.9779 21.1191C36.8157 20.9789 36.8497 20.8727 36.5773 20.8146C36.4631 20.8867 36.3469 20.8507 36.1767 20.8747C36.2688 20.5622 36.0284 20.4741 36.0645 20.2738C36.387 19.9913 36.2648 19.5747 36.1206 19.3003C36.7215 19.0539 37.4387 19.2622 37.9655 19.3003C38.0196 19.138 38.0376 19.1961 38.0777 18.9958C37.8453 18.7734 38.0156 18.5952 37.9655 18.509C37.8593 18.3247 37.7391 18.4589 37.687 18.1445L37.1843 18.0844C37.1482 17.9782 37.1742 18.0263 37.1282 17.9622C37.1782 17.8961 37.1282 17.9622 37.1843 17.9021C37.3726 17.7799 37.691 17.866 37.8553 17.842C37.8553 17.6417 37.7752 17.7278 37.9675 17.6597C38.1678 17.7719 38.2539 17.5796 38.5264 17.5375V17.2811C39.1113 17.2651 39.0171 17.0367 39.3096 16.7943C39.3396 16.7703 39.7563 16.6181 39.9245 16.552C39.9994 16.6375 40.0965 16.7006 40.205 16.7342V16.4899C40.0968 16.3777 40.0447 16.3076 40.0928 16.1854C40.2082 16.0024 40.391 15.8721 40.6016 15.8228C40.6517 15.8889 40.6016 15.8228 40.6577 15.8829C40.6437 16.0832 40.6577 15.9771 40.7138 16.1874C40.5315 16.2375 40.6277 16.1573 40.5455 16.3096C40.7058 16.3777 40.6477 16.3196 40.7138 16.4919H40.6016C40.5525 16.4423 40.4957 16.401 40.4333 16.3697V16.4919L40.6016 16.6141C40.7098 16.7042 40.7719 16.6882 41.0483 16.6741C41.1224 16.4738 41.1264 16.3877 41.3267 16.3096C41.365 16.42 41.4219 16.5229 41.495 16.6141C41.6472 16.4899 42.0579 16.1934 42.3884 16.3096C42.4565 16.3336 42.4765 16.4939 42.6688 16.4318C42.737 16.4097 42.8151 16.3196 42.7249 16.2495C42.8471 16.2014 42.9773 16.2254 43.0595 16.1894C42.9473 15.8288 43.1035 15.7767 43.2838 15.5884C43.4601 15.6866 43.5001 15.7888 43.7305 15.8308C43.7288 15.707 43.7478 15.5838 43.7866 15.4663C43.5663 15.4222 43.6063 15.4663 43.5622 15.2239H43.6744C44.1111 14.9334 44.5678 15.3561 45.0165 15.0416C44.2794 14.9394 43.6524 15.0055 43.1155 14.9194C43.148 14.7122 43.1084 14.5001 43.0034 14.3185C43.3419 14.1842 43.6043 13.9038 43.9529 13.8317V13.6494C43.6727 13.6088 43.3871 13.6293 43.1155 13.7095C43.0655 13.8557 43.0735 13.9359 42.9473 14.014C42.7182 14.1491 42.4784 14.265 42.2302 14.3605L42.1741 14.7852C42.2475 14.8107 42.315 14.8508 42.3725 14.9031C42.43 14.9555 42.4763 15.0189 42.5086 15.0897C42.3764 15.1558 42.4084 15.1478 42.3403 15.272C42.11 15.272 41.9918 15.324 42.0058 15.7587C42.0499 15.8208 42.0258 15.7747 42.0619 15.8809C41.7454 15.925 41.3227 16.1754 41.2246 16.1233C41.2246 16.1233 40.6918 15.322 40.6657 15.272C40.1669 15.6726 39.8645 15.7267 39.3797 15.332C39.4698 15.0376 39.3637 14.7191 39.3797 14.4807C39.5541 14.4408 39.723 14.3796 39.8825 14.2984C39.9826 14.2183 39.8564 14.1983 40.1068 14.1762C40.3049 14.0612 40.5103 13.9595 40.7218 13.8718C40.7492 13.9381 40.7871 13.9997 40.834 14.054C40.8403 13.9709 40.8592 13.8891 40.8901 13.8117L41.0583 13.8718C41.0583 13.7295 41.5231 13.375 41.7294 13.2708V13.2107C41.5992 13.1987 41.5711 13.1987 41.505 13.1506H41.6172C41.7514 12.9042 41.9317 13.0745 42.1761 13.0905C42.128 12.9984 42.0178 13.0465 42.12 12.9683C42.3964 12.7019 42.781 12.7059 43.2117 12.6779C41.4875 11.3621 39.5778 10.309 37.5448 9.55299H37.4807C36.9178 9.6231 36.5152 9.19844 36.0284 9.4308C35.8161 9.53296 34.8526 9.20244 34.7424 9.30861C34.6823 9.25853 34.6563 9.16839 34.5181 9.12632C34.2697 9.0502 33.8991 9.18441 33.7349 9.18642L33.5105 9.06423C33.0698 8.9861 32.1083 9.15036 31.6656 9.18642C31.1488 9.22848 30.664 9.00413 29.989 9.18642C29.374 9.35268 28.7751 9.13634 28.4245 9.3687C29.8948 9.54498 31.1688 9.51293 32.8314 9.49089V9.55299H32.7894C32.6812 9.60107 32.9015 9.61309 32.9015 9.61309C33.1019 9.50091 33.3022 9.60307 33.4604 9.67318C33.4184 9.72526 33.3903 9.74129 33.3482 9.79537H33.6828C33.9561 9.71513 34.2467 9.71513 34.5201 9.79537V9.85546C34.4039 9.8775 34.4119 9.86949 34.3518 9.91556C34.8766 9.90354 35.1631 9.71525 35.4135 9.91556C35.1931 9.95362 34.2436 10.3542 34.0714 10.5946H34.0153V10.6547C34.1848 10.6534 34.3537 10.6736 34.5181 10.7148C34.468 10.7809 34.5181 10.7148 34.462 10.7749V10.835C34.3908 10.8033 34.3151 10.783 34.2376 10.7749V10.9552C34.1153 10.9559 33.9971 10.9991 33.9031 11.0774C34.0545 11.0695 34.2059 11.0899 34.3498 11.1375C34.1755 11.7024 34.0834 11.5101 33.7909 11.7384C33.8831 11.8286 33.847 11.7825 33.847 11.8606C33.6968 11.9688 33.5265 11.8907 33.3442 11.8606V11.9207H33.4564C33.5125 11.9628 33.6808 11.9988 33.7369 12.0429C33.6728 12.0689 33.4744 12.113 33.6247 12.1651C33.6943 12.2146 33.7696 12.2557 33.849 12.2873V12.4095H33.6247C33.5702 12.3278 33.4948 12.2622 33.4064 12.2196C33.318 12.177 33.2197 12.1588 33.1219 12.1671C33.0999 12.3253 33.164 12.2472 33.0097 12.2893V12.4716L33.4564 12.6539C33.4003 12.7019 33.4404 12.6759 33.3442 12.7139C33.0518 12.9143 32.3687 12.9503 32.1143 13.0184C31.942 13.0645 31.7618 12.9163 31.6676 12.9583C31.3311 13.1066 30.9865 13.4872 30.5499 13.6274C30.1492 13.7536 29.8728 13.6534 29.6004 13.8698C29.8307 14.1682 29.34 14.2544 29.1997 14.5989C29.1356 14.7672 29.356 14.9394 29.1997 15.0857H28.7991C28.5988 15.1638 28.6369 15.0115 28.3985 14.9034C28.2357 14.8467 28.0585 14.8467 27.8957 14.9034L27.8396 14.7211L27.6714 14.7812C27.2948 14.5328 27.1846 14.1682 26.8881 13.9919C26.9562 13.6855 26.7319 13.5913 26.7759 13.3229C26.5756 13.2969 26.6357 13.3509 26.5516 13.2007C26.5957 13.1386 26.5716 13.1847 26.6077 13.0785C26.7479 13.0405 27.0944 12.9042 27.1666 12.774C27.1806 12.7159 27.2106 12.75 27.1666 12.7139C27.0784 12.6038 27.1165 12.6298 26.9422 12.5918C26.814 12.8782 26.4434 12.736 26.3833 12.6518H26.3272L26.3833 12.4696C26.4995 12.4255 26.5195 12.3434 26.6077 12.1651H26.4955C26.3713 12.2492 26.3132 12.1991 26.161 12.1651C26.193 11.9187 26.1069 11.9367 26.2171 11.8606L26.2732 11.7384H26.1049C26.0168 11.8145 26.0769 11.7765 25.9927 11.7384C25.7468 11.6292 25.5484 11.4351 25.4338 11.1916C25.1294 11.2497 25.0973 11.1395 24.875 11.0694L24.2039 11.1916L23.8694 11.0694C23.4908 11.0053 23.4067 11.2196 23.0862 10.8871C22.9994 10.9404 22.9057 10.9815 22.8077 11.0093L22.7516 10.827C22.8818 10.815 22.9099 10.815 22.976 10.7669C22.6275 10.7348 22.5293 10.5465 22.3049 10.4624C22.1187 10.3943 21.9804 10.5626 21.8582 10.5846L21.5237 10.5245L21.4115 10.7068C21.0297 10.9508 20.5763 11.0582 20.1255 11.0113V11.1335C20.3006 11.1321 20.4734 11.1741 20.6283 11.2557V11.3779C19.9744 11.3675 19.3208 11.4084 18.6733 11.5C18.5957 11.5139 18.5164 11.5139 18.4389 11.5C18.2987 11.5882 18.1645 11.6803 18.0262 11.7705C18.2806 11.6683 19.0458 11.464 19.2882 11.5702C19.3724 11.6062 19.4084 11.7444 19.6227 11.6923C20.9328 11.3678 21.3254 12.0469 22.5854 12.117C22.5974 12.0329 22.5393 12.141 22.5293 12.0569C22.4211 12.0088 22.6415 11.9968 22.6415 11.9968C22.7765 12.0054 22.9105 12.0255 23.0421 12.0569C23.0261 11.9067 23.006 12.0269 23.0421 11.8746C23.4848 12.135 24.1458 11.6743 24.6626 12.117C24.8489 12.4615 24.6626 12.5176 25.0633 12.8462C24.9751 13.1366 25.0412 13.2468 25.0072 13.6374C24.8289 13.6554 24.7828 13.6494 24.7267 13.6975C24.6084 13.7912 24.4966 13.893 24.3922 14.002C24.1842 13.9521 23.9789 13.8912 23.7773 13.8197V13.8798C23.872 13.9395 23.9494 14.0231 24.0016 14.1221C23.8329 14.221 23.6373 14.2638 23.4427 14.2443C23.3864 14.1827 23.3172 14.1344 23.2399 14.1029C23.1626 14.0714 23.0793 14.0574 22.996 14.0621V14.1221H23.1082C23.2705 14.3225 23.4788 14.2443 23.5549 14.5468H23.4988C23.3145 14.3465 22.8638 14.3585 22.5493 14.4246C22.4752 14.2644 22.4151 14.3545 22.325 14.2423C21.9243 13.7375 21.6159 14.0701 20.8727 13.9379V13.8778C20.9192 13.8464 20.9576 13.8046 20.9849 13.7556H20.5382C20.2822 13.7744 20.0252 13.7757 19.769 13.7596V13.8197H19.8811C20.0365 13.9137 20.2001 13.9935 20.3699 14.058V14.1802H20.2577C20.1756 14.2043 19.7429 14.004 19.6989 14.058C19.5186 14.1762 19.4745 14.2704 19.1961 14.3004C19.176 14.1742 19.1821 14.1842 19.14 14.1181C19.0373 14.1722 18.9205 14.1932 18.8055 14.1782V14.1181C19.0218 13.9919 19.0438 13.8157 19.14 13.5713H19.0278C18.6132 14.3104 17.1368 14.1322 17.1268 15.274C17.1849 15.298 17.3752 15.284 17.4614 15.334C17.6617 15.4442 17.5735 15.6746 17.862 15.7587C18.0413 15.6864 18.2416 15.6864 18.4209 15.7587C18.6873 15.8509 18.9697 16.0952 19.2582 16.1834C19.6588 16.3056 19.791 16.1834 20.0414 16.3056C20.0033 16.465 19.9845 16.6284 19.9853 16.7923C20.1496 16.7403 20.2177 16.6721 20.3198 16.8524C20.1896 16.8644 20.1616 16.8644 20.0955 16.9125H20.1516C20.2549 17.0486 20.3935 17.1538 20.5522 17.217C20.6644 17.0567 20.7265 17.1068 20.7766 16.8524C20.6813 16.6792 20.606 16.4958 20.5522 16.3056C20.8667 16.3056 21.1211 16.1854 21.2233 15.941C21.2673 15.8689 21.2673 15.8388 21.2793 15.6986C21.1115 15.6023 20.9606 15.4792 20.8326 15.334C20.9142 15.2598 20.9893 15.1787 21.057 15.0917C21.0166 14.8873 20.9604 14.6864 20.8887 14.4907C20.9514 14.4599 21.0083 14.4186 21.057 14.3685L21.728 14.4907C21.8022 14.4907 21.8683 14.3866 22.0065 14.4306C22.4852 14.5769 22.2789 14.7852 22.8458 14.7351C22.7961 14.8723 22.7961 15.0226 22.8458 15.1598C22.965 15.2481 23.1015 15.3102 23.2464 15.3421C23.5589 15.3841 23.6591 14.9795 23.9736 14.8553C23.9836 14.8873 24.901 16.1153 24.923 16.1313C25.1995 16.3316 25.4359 16.0672 25.5941 16.3737H25.538C25.4819 16.4358 25.5941 16.4338 25.5941 16.4338C25.8565 16.6141 25.9386 16.4778 25.9286 16.9806C25.8305 17.0187 25.8745 16.9926 25.8164 17.0407C25.9467 17.0527 25.9747 17.0527 26.0408 17.1008C25.9362 17.1765 25.8578 17.2829 25.8164 17.4053C25.9847 17.4854 25.9306 17.5375 26.151 17.5876C26.2001 17.538 26.2569 17.4967 26.3192 17.4654C26.3709 17.6782 26.4878 17.8694 26.6538 18.0122C26.5776 18.1965 26.5857 18.2586 26.3753 18.3167C26.175 18.0763 26.163 18.1925 25.8725 18.2566C25.8725 18.0283 25.9406 18.1084 25.7043 18.0743C25.4995 18.0864 25.2941 18.0864 25.0893 18.0743C25.1554 17.6236 25.516 17.5034 25.6482 17.1008H25.4799C25.2342 17.2879 24.947 17.413 24.6426 17.4654C24.4683 17.4894 24.2119 17.3392 24.0276 17.4654C24.2981 17.4654 24.4924 17.5175 24.5865 17.7078H24.4183C24.1288 17.4952 23.7755 17.3877 23.4167 17.4033C23.2905 17.5495 23.0882 17.6176 22.97 17.7679H22.9139V17.828H23.0261C23.2364 17.6276 23.8053 17.4273 23.9756 17.7679H24.0316C24.0877 17.83 23.9776 17.828 23.9756 17.828C23.9315 17.87 23.8514 17.9081 23.8073 17.9501C23.9155 18.0122 23.9215 18.2005 23.9756 18.3748H24.0316C24.0417 18.2326 24.0417 18.2025 24.0877 18.1324C24.2079 18.2646 24.4383 18.2126 24.5344 18.3748C24.488 18.4062 24.4496 18.4481 24.4223 18.497H24.5344C24.6284 18.3944 24.7422 18.3119 24.869 18.2546C24.919 18.4029 24.9291 18.3508 24.9811 18.497C24.4824 18.5451 24.0597 18.9477 23.639 19.0979C23.5774 19.0071 23.5389 18.9026 23.5269 18.7935C23.6368 18.7641 23.7344 18.7002 23.8053 18.6112C23.2885 18.6472 22.5774 18.9457 22.6315 19.6448C22.2308 19.6688 22.1567 19.8231 21.9043 19.8872C21.7917 20.1507 21.6412 20.3963 21.4576 20.6163V20.6764H21.4015C21.4135 20.4761 21.5217 20.5302 21.3454 20.434V20.6764H21.2894C21.2333 20.7385 21.3454 20.7365 21.3454 20.7365C21.3903 20.8245 21.4469 20.9061 21.5137 20.9789C21.4776 21.0851 21.5037 21.037 21.4576 21.1011C21.3715 21.1912 21.3555 21.1492 21.2894 21.2834H21.3454V21.3435C20.9448 21.3555 20.2037 21.9003 20.1716 22.4372C20.413 22.7935 20.513 23.227 20.452 23.6531H20.2277C20.1181 23.4062 19.967 23.1799 19.781 22.984C19.8296 22.9089 19.8674 22.8273 19.8932 22.7417C19.7209 22.6175 19.7289 22.5313 19.4465 22.4993C19.2462 22.6175 19.2121 22.4131 19.0458 22.3771C18.8455 22.331 18.5451 22.4312 18.2065 22.4372V22.4973C18.3447 22.5754 18.2446 22.4712 18.3187 22.6195H18.0883C17.9321 22.7016 17.6136 22.5894 17.4734 22.4973C17.217 22.5233 16.5059 22.9099 16.4718 23.0982C16.4598 23.2244 16.614 23.4488 16.584 23.585L16.4157 23.6451V24.4363C16.4798 24.7328 16.7262 24.883 16.8163 25.2255C17.1188 25.2596 17.0748 25.3658 17.3752 25.4078C17.5335 25.2676 17.6737 25.3017 17.878 25.3477C17.9181 25.2035 18.0964 24.7468 18.2125 24.6787C18.4188 24.5714 18.6527 24.5288 18.8836 24.5565C18.9176 24.6546 18.9366 24.7572 18.9397 24.861C18.6953 24.9832 18.7854 25.1574 18.8836 25.3477C18.6292 25.4199 18.5571 25.6442 18.3247 25.7724V25.8325H19.3263C19.4264 25.9907 19.4965 25.9707 19.5506 26.1971C19.5807 26.3273 19.4004 26.824 19.4945 27.0484C19.5226 27.1693 19.585 27.2796 19.6742 27.3659C19.7634 27.4522 19.8756 27.511 19.9973 27.5352C20.0755 27.5352 20.422 27.2768 20.7245 27.413L20.8927 27.6554C20.9949 27.6874 20.9789 27.6053 21.0049 27.5953C21.3134 27.4751 21.2172 27.1285 21.4516 26.9943C21.686 26.8601 21.9504 26.9823 22.1787 26.6297L22.347 26.6898V26.8721C22.2188 26.9543 22.2449 26.9462 22.2348 26.9943V27.0544C22.3228 27.0035 22.4162 26.9625 22.5133 26.9322C22.5133 26.774 22.5133 26.8361 22.5694 26.6277H22.6254C22.6575 26.8882 22.952 27.0925 23.1282 27.1746C23.3285 27.0424 23.5629 27.2127 23.8554 27.2347V26.9923C24.0176 27.0224 23.9595 27.0825 24.0236 27.1145C24.1724 27.1042 24.3216 27.1042 24.4703 27.1145C24.4824 27.1986 24.4243 27.0905 24.4142 27.1746C24.3061 27.2207 24.5264 27.2347 24.5264 27.2347C24.5725 27.0344 24.4984 27.1425 24.6386 27.0524C24.6887 27.1185 24.6386 27.0524 24.6947 27.1125C24.6566 27.3609 24.6025 27.4751 24.6947 27.5372C24.895 27.7375 25.2636 28.1702 25.532 28.2663C25.702 28.287 25.8745 28.2664 26.0348 28.2062C26.5616 28.1241 26.9843 28.6068 26.9843 29.1797C27.0536 29.2306 27.1071 29.3 27.1385 29.3801C24.8409 29.4562 22.4592 29.6204 20.0895 29.8388C20.1095 29.7811 20.135 29.7254 20.1656 29.6725C20.2317 29.5603 20.428 29.5844 20.5001 29.4902L20.5562 29.1257C20.6343 29.0095 20.7565 29.0936 20.8346 28.9434C20.8936 28.684 20.9125 28.4172 20.8907 28.1521C20.8755 28.0195 20.8187 27.8951 20.7283 27.7969C20.638 27.6986 20.5188 27.6315 20.3879 27.6053C20.3388 27.6548 20.282 27.6961 20.2197 27.7275C20.2197 27.9658 20.3459 27.8857 20.1075 27.9698C19.9634 27.8574 19.7874 27.7936 19.6047 27.7876C19.5346 27.7255 19.5566 27.5512 19.4925 27.4831C19.3703 27.3549 19.138 27.3869 19.0458 27.3609C18.9056 26.8801 18.7193 26.5096 18.2626 26.5096C18.0483 26.3493 17.6957 26.3733 17.4794 26.2051C17.3472 26.1029 17.263 25.8405 17.0788 25.7804L16.4077 25.9026C15.7418 25.7268 15.1281 25.3928 14.6189 24.9291L14.7311 24.5645C14.5748 24.4223 14.5308 24.1899 14.3966 24.0177C14.2263 23.7893 13.8998 23.6931 13.7255 23.4708C13.772 23.4395 13.8104 23.3976 13.8377 23.3486C13.6374 23.2865 13.5472 23.2364 13.5032 22.984H13.3389C13.2648 22.8558 12.9383 22.2549 12.8361 22.1928C12.7522 22.1433 12.6545 22.1223 12.5577 22.1327V22.2549C12.6785 22.4079 12.8126 22.55 12.9583 22.6796C12.8862 22.7136 12.9162 22.6796 12.9022 22.7397C13.0885 23.0341 13.4471 23.3546 13.5172 23.8955H13.6854C13.747 23.9863 13.7855 24.0908 13.7976 24.1999C13.7375 24.256 13.7976 24.1999 13.7415 24.26H13.6294C13.5849 24.1478 13.5171 24.0464 13.4304 23.9625C13.3437 23.8785 13.2401 23.814 13.1266 23.7733C13.1486 23.603 13.1947 23.601 13.1266 23.4688C12.9514 23.3028 12.7413 23.1783 12.5116 23.1042V23.0441H12.5577C12.6068 22.9946 12.6636 22.9533 12.7259 22.9219V22.8618H12.6699C12.5817 22.6255 12.4555 22.7156 12.3353 22.5574C12.151 22.317 12.1591 21.8483 11.9347 21.6459C11.7544 21.4737 11.464 21.5338 11.2636 21.4036C11.2636 21.4036 10.8931 20.8908 10.863 20.8567C10.9612 20.8186 10.9171 20.8447 10.9752 20.7966C10.8636 20.7406 10.7645 20.6626 10.684 20.5672C10.6034 20.4718 10.543 20.3611 10.5065 20.2417C8.78283 23.6669 7.99766 27.4877 8.2309 31.3151L7.70007 31.3972C7.31039 25.7083 9.11179 20.0857 12.7349 15.6824C16.3581 11.2792 21.5284 8.42871 27.1859 7.71553C32.8435 7.00236 38.5595 8.48048 43.162 11.8469C47.7646 15.2132 50.905 20.2128 51.9394 25.8205H51.9414ZM51.2383 49.9543C50.4998 50.1479 49.7653 50.3309 49.0348 50.5031C50.437 45.9961 52.314 39.3076 54.0427 33.0238C54.9775 33.2441 55.9123 33.4758 56.8471 33.7189C56.7088 39.566 56.6467 44.2854 56.7148 48.3598C55.947 48.6068 55.1851 48.8425 54.4293 49.0669C54.4152 48.1334 54.4072 47.1539 54.4112 46.1163C53.6874 46.2992 52.967 46.4735 52.2499 46.6391C51.8873 47.8129 51.5528 48.9247 51.2363 49.9543H51.2383ZM54.5434 43.9268C54.5835 42.8812 54.6302 41.7862 54.6837 40.6417C54.7177 39.6401 54.8299 37.8854 54.9 36.7075H54.8459C54.5434 37.8854 54.0887 39.6942 53.8103 40.7138C53.4798 41.9157 53.1513 43.1016 52.8268 44.2554C53.397 44.1459 53.9692 44.0364 54.5434 43.9268Z" fill="#ED1C24"/>
</svg>
